*** Darwin 10x10 ***
Turn = 0.
  0123456789
0 f.........
1 .ff.......
2 ..........
3 ..........
4 ..........
5 ..........
6 ..........
7 ..........
8 ..........
9 ..........

Turn = 1.
  0123456789
0 f.........
1 .ff.......
2 ..........
3 ..........
4 ..........
5 ..........
6 ..........
7 ..........
8 ..........
9 ..........

Turn = 2.
  0123456789
0 f.........
1 .ff.......
2 ..........
3 ..........
4 ..........
5 ..........
6 ..........
7 ..........
8 ..........
9 ..........

Turn = 3.
  0123456789
0 f.........
1 .ff.......
2 ..........
3 ..........
4 ..........
5 ..........
6 ..........
7 ..........
8 ..........
9 ..........

Turn = 4.
  0123456789
0 f.........
1 .ff.......
2 ..........
3 ..........
4 ..........
5 ..........
6 ..........
7 ..........
8 ..........
9 ..........

Turn = 5.
  0123456789
0 f.........
1 .ff.......
2 ..........
3 ..........
4 ..........
5 ..........
6 ..........
7 ..........
8 ..........
9 ..........

*** Darwin 10x10 ***
Turn = 0.
  0123456789
0 tt........
1 t.........
2 ..........
3 ..........
4 ..........
5 ..........
6 ..........
7 ..........
8 ..........
9 ..........

Turn = 1.
  0123456789
0 tt........
1 t.........
2 ..........
3 ..........
4 ..........
5 ..........
6 ..........
7 ..........
8 ..........
9 ..........

Turn = 2.
  0123456789
0 tt........
1 t.........
2 ..........
3 ..........
4 ..........
5 ..........
6 ..........
7 ..........
8 ..........
9 ..........

Turn = 3.
  0123456789
0 tt........
1 t.........
2 ..........
3 ..........
4 ..........
5 ..........
6 ..........
7 ..........
8 ..........
9 ..........

Turn = 4.
  0123456789
0 tt........
1 t.........
2 ..........
3 ..........
4 ..........
5 ..........
6 ..........
7 ..........
8 ..........
9 ..........

Turn = 5.
  0123456789
0 tt........
1 t.........
2 ..........
3 ..........
4 ..........
5 ..........
6 ..........
7 ..........
8 ..........
9 ..........

*** Darwin 10x10 ***
Turn = 0.
  0123456789
0 h.........
1 ..........
2 ..........
3 ..........
4 ..........
5 .....h....
6 ..........
7 ..........
8 ..........
9 .........h

Turn = 1.
  0123456789
0 .h........
1 ..........
2 ..........
3 ..........
4 ..........
5 ..........
6 .....h....
7 ..........
8 ..........
9 ........h.

Turn = 2.
  0123456789
0 ..h.......
1 ..........
2 ..........
3 ..........
4 ..........
5 ..........
6 ..........
7 .....h....
8 ..........
9 .......h..

Turn = 3.
  0123456789
0 ...h......
1 ..........
2 ..........
3 ..........
4 ..........
5 ..........
6 ..........
7 ..........
8 .....h....
9 ......h...

Turn = 4.
  0123456789
0 ....h.....
1 ..........
2 ..........
3 ..........
4 ..........
5 ..........
6 ..........
7 ..........
8 ..........
9 .....hh...

Turn = 5.
  0123456789
0 .....h....
1 ..........
2 ..........
3 ..........
4 ..........
5 ..........
6 ..........
7 ..........
8 ..........
9 .....hh...

*** Darwin 10x10 ***
Turn = 0.
  0123456789
0 .....r....
1 ..........
2 ..........
3 ..........
4 ..........
5 r.........
6 ..........
7 ..........
8 ..........
9 .........r

Turn = 1.
  0123456789
0 ..........
1 .....r....
2 ..........
3 ..........
4 ..........
5 r.........
6 ..........
7 ..........
8 ..........
9 ........r.

Turn = 2.
  0123456789
0 ..........
1 ..........
2 .....r....
3 ..........
4 r.........
5 ..........
6 ..........
7 ..........
8 ..........
9 .......r..

Turn = 3.
  0123456789
0 ..........
1 ..........
2 ..........
3 r....r....
4 ..........
5 ..........
6 ..........
7 ..........
8 ..........
9 ......r...

Turn = 4.
  0123456789
0 ..........
1 ..........
2 r.........
3 ..........
4 .....r....
5 ..........
6 ..........
7 ..........
8 ..........
9 .....r....

Turn = 5.
  0123456789
0 ..........
1 r.........
2 ..........
3 ..........
4 ..........
5 .....r....
6 ..........
7 ..........
8 ..........
9 ....r.....

Turn = 6.
  0123456789
0 r.........
1 ..........
2 ..........
3 ..........
4 ..........
5 ..........
6 .....r....
7 ..........
8 ..........
9 ...r......

Turn = 7.
  0123456789
0 r.........
1 ..........
2 ..........
3 ..........
4 ..........
5 ..........
6 ..........
7 .....r....
8 ..........
9 ..r.......

Turn = 8.
  0123456789
0 r.........
1 ..........
2 ..........
3 ..........
4 ..........
5 ..........
6 ..........
7 ..........
8 .....r....
9 .r........

Turn = 9.
  0123456789
0 r.........
1 ..........
2 ..........
3 ..........
4 ..........
5 ..........
6 ..........
7 ..........
8 ..........
9 r....r....

Turn = 10.
  0123456789
0 .r........
1 ..........
2 ..........
3 ..........
4 ..........
5 ..........
6 ..........
7 ..........
8 ..........
9 r....r....

*** Darwin 10x10 ***
Turn = 0.
  0123456789
0 h....r....
1 ..........
2 ..........
3 ....t.....
4 ..........
5 ..........
6 ..........
7 ..........
8 ..........
9 ..........

Turn = 1.
  0123456789
0 .h..r.....
1 ..........
2 ..........
3 ....t.....
4 ..........
5 ..........
6 ..........
7 ..........
8 ..........
9 ..........

Turn = 2.
  0123456789
0 ..hr......
1 ..........
2 ..........
3 ....t.....
4 ..........
5 ..........
6 ..........
7 ..........
8 ..........
9 ..........

Turn = 3.
  0123456789
0 ..rr......
1 ..........
2 ..........
3 ....t.....
4 ..........
5 ..........
6 ..........
7 ..........
8 ..........
9 ..........

Turn = 4.
  0123456789
0 ..rr......
1 ..........
2 ..........
3 ....t.....
4 ..........
5 ..........
6 ..........
7 ..........
8 ..........
9 ..........

Turn = 5.
  0123456789
0 ..........
1 ..rr......
2 ..........
3 ....t.....
4 ..........
5 ..........
6 ..........
7 ..........
8 ..........
9 ..........

Turn = 6.
  0123456789
0 ..........
1 ..........
2 ..rr......
3 ....t.....
4 ..........
5 ..........
6 ..........
7 ..........
8 ..........
9 ..........

Turn = 7.
  0123456789
0 ..........
1 ..........
2 ..........
3 ..rrt.....
4 ..........
5 ..........
6 ..........
7 ..........
8 ..........
9 ..........

Turn = 8.
  0123456789
0 ..........
1 ..........
2 ..........
3 ....t.....
4 ..rr......
5 ..........
6 ..........
7 ..........
8 ..........
9 ..........

Turn = 9.
  0123456789
0 ..........
1 ..........
2 ..........
3 ....t.....
4 ..........
5 ..rr......
6 ..........
7 ..........
8 ..........
9 ..........

Turn = 10.
  0123456789
0 ..........
1 ..........
2 ..........
3 ....t.....
4 ..........
5 ..........
6 ..rr......
7 ..........
8 ..........
9 ..........

*** Darwin 10x10 ***
Turn = 0.
  0123456789
0 h.........
1 ..........
2 .....f....
3 ..........
4 ..........
5 .....t....
6 .........h
7 ..........
8 ..........
9 ..........

Turn = 1.
  0123456789
0 .h........
1 ..........
2 .....f....
3 ..........
4 ..........
5 .....t....
6 ..........
7 .........h
8 ..........
9 ..........

Turn = 2.
  0123456789
0 ..h.......
1 ..........
2 .....f....
3 ..........
4 ..........
5 .....t....
6 ..........
7 ..........
8 .........h
9 ..........

Turn = 3.
  0123456789
0 ...h......
1 ..........
2 .....f....
3 ..........
4 ..........
5 .....t....
6 ..........
7 ..........
8 ..........
9 .........h

Turn = 4.
  0123456789
0 ....h.....
1 ..........
2 .....f....
3 ..........
4 ..........
5 .....t....
6 ..........
7 ..........
8 ..........
9 .........h

Turn = 5.
  0123456789
0 .....h....
1 ..........
2 .....f....
3 ..........
4 ..........
5 .....t....
6 ..........
7 ..........
8 ..........
9 .........h

Turn = 6.
  0123456789
0 ......h...
1 ..........
2 .....f....
3 ..........
4 ..........
5 .....t....
6 ..........
7 ..........
8 ..........
9 .........h

Turn = 7.
  0123456789
0 .......h..
1 ..........
2 .....f....
3 ..........
4 ..........
5 .....t....
6 ..........
7 ..........
8 ..........
9 .........h

Turn = 8.
  0123456789
0 ........h.
1 ..........
2 .....f....
3 ..........
4 ..........
5 .....t....
6 ..........
7 ..........
8 ..........
9 .........h

Turn = 9.
  0123456789
0 .........h
1 ..........
2 .....f....
3 ..........
4 ..........
5 .....t....
6 ..........
7 ..........
8 ..........
9 .........h

Turn = 10.
  0123456789
0 .........h
1 ..........
2 .....f....
3 ..........
4 ..........
5 .....t....
6 ..........
7 ..........
8 ..........
9 .........h

*** Darwin 10x10 ***
Turn = 0.
  0123456789
0 r.........
1 ........h.
2 ...h......
3 ..........
4 ..........
5 ..........
6 .........r
7 ..........
8 ..........
9 ..........

Turn = 1.
  0123456789
0 .r........
1 .......h..
2 ..........
3 ...h......
4 ..........
5 ..........
6 ..........
7 .........r
8 ..........
9 ..........

Turn = 2.
  0123456789
0 ..r.......
1 ......h...
2 ..........
3 ..........
4 ...h......
5 ..........
6 ..........
7 ..........
8 .........r
9 ..........

Turn = 3.
  0123456789
0 ...r......
1 .....h....
2 ..........
3 ..........
4 ..........
5 ...h......
6 ..........
7 ..........
8 ..........
9 .........r

Turn = 4.
  0123456789
0 ....r.....
1 ....h.....
2 ..........
3 ..........
4 ..........
5 ..........
6 ...h......
7 ..........
8 ..........
9 .........r

Turn = 5.
  0123456789
0 .....r....
1 ...h......
2 ..........
3 ..........
4 ..........
5 ..........
6 ..........
7 ...h......
8 ..........
9 ........r.

Turn = 6.
  0123456789
0 ......r...
1 ..h.......
2 ..........
3 ..........
4 ..........
5 ..........
6 ..........
7 ..........
8 ...h......
9 .......r..

Turn = 7.
  0123456789
0 .......r..
1 .h........
2 ..........
3 ..........
4 ..........
5 ..........
6 ..........
7 ..........
8 ..........
9 ...h..r...

Turn = 8.
  0123456789
0 ........r.
1 h.........
2 ..........
3 ..........
4 ..........
5 ..........
6 ..........
7 ..........
8 ..........
9 ...h.r....

Turn = 9.
  0123456789
0 .........r
1 h.........
2 ..........
3 ..........
4 ..........
5 ..........
6 ..........
7 ..........
8 ..........
9 ...hr.....

Turn = 10.
  0123456789
0 .........r
1 h.........
2 ..........
3 ..........
4 ..........
5 ..........
6 ..........
7 ..........
8 ..........
9 ...rr.....

*** Darwin 10x10 ***
Turn = 0.
  0123456789
0 r.........
1 ..........
2 ..........
3 ..........
4 ..........
5 .....t....
6 ..........
7 ..........
8 ..........
9 r........r

Turn = 1.
  0123456789
0 .r........
1 ..........
2 ..........
3 ..........
4 ..........
5 .....t....
6 ..........
7 ..........
8 r.........
9 ........r.

Turn = 2.
  0123456789
0 ..r.......
1 ..........
2 ..........
3 ..........
4 ..........
5 .....t....
6 ..........
7 r.........
8 ..........
9 .......r..

Turn = 3.
  0123456789
0 ...r......
1 ..........
2 ..........
3 ..........
4 ..........
5 .....t....
6 r.........
7 ..........
8 ..........
9 ......r...

Turn = 4.
  0123456789
0 ....r.....
1 ..........
2 ..........
3 ..........
4 ..........
5 r....t....
6 ..........
7 ..........
8 ..........
9 .....r....

Turn = 5.
  0123456789
0 .....r....
1 ..........
2 ..........
3 ..........
4 r.........
5 .....t....
6 ..........
7 ..........
8 ..........
9 ....r.....

Turn = 6.
  0123456789
0 ......r...
1 ..........
2 ..........
3 r.........
4 ..........
5 .....t....
6 ..........
7 ..........
8 ..........
9 ...r......

Turn = 7.
  0123456789
0 .......r..
1 ..........
2 r.........
3 ..........
4 ..........
5 .....t....
6 ..........
7 ..........
8 ..........
9 ..r.......

Turn = 8.
  0123456789
0 ........r.
1 r.........
2 ..........
3 ..........
4 ..........
5 .....t....
6 ..........
7 ..........
8 ..........
9 .r........

Turn = 9.
  0123456789
0 r........r
1 ..........
2 ..........
3 ..........
4 ..........
5 .....t....
6 ..........
7 ..........
8 ..........
9 r.........

Turn = 10.
  0123456789
0 r........r
1 ..........
2 ..........
3 ..........
4 ..........
5 .....t....
6 ..........
7 ..........
8 ..........
9 r.........

*** Darwin 10x10 ***
Turn = 0.
  0123456789
0 r.........
1 ..........
2 ..........
3 ..........
4 ..........
5 .....f....
6 ..........
7 ..........
8 ..........
9 r........r

Turn = 1.
  0123456789
0 .r........
1 ..........
2 ..........
3 ..........
4 ..........
5 .....f....
6 ..........
7 ..........
8 .........r
9 r.........

Turn = 2.
  0123456789
0 ..r.......
1 ..........
2 ..........
3 ..........
4 ..........
5 .....f....
6 ..........
7 .........r
8 r.........
9 ..........

Turn = 3.
  0123456789
0 ...r......
1 ..........
2 ..........
3 ..........
4 ..........
5 .....f....
6 .........r
7 r.........
8 ..........
9 ..........

Turn = 4.
  0123456789
0 ....r.....
1 ..........
2 ..........
3 ..........
4 ..........
5 .....f...r
6 r.........
7 ..........
8 ..........
9 ..........

Turn = 5.
  0123456789
0 .....r....
1 ..........
2 ..........
3 ..........
4 .........r
5 r....f....
6 ..........
7 ..........
8 ..........
9 ..........

Turn = 6.
  0123456789
0 ......r...
1 ..........
2 ..........
3 .........r
4 r.........
5 .....f....
6 ..........
7 ..........
8 ..........
9 ..........

Turn = 7.
  0123456789
0 .......r..
1 ..........
2 .........r
3 r.........
4 ..........
5 .....f....
6 ..........
7 ..........
8 ..........
9 ..........

Turn = 8.
  0123456789
0 ........r.
1 .........r
2 r.........
3 ..........
4 ..........
5 .....f....
6 ..........
7 ..........
8 ..........
9 ..........

Turn = 9.
  0123456789
0 .........r
1 r........r
2 ..........
3 ..........
4 ..........
5 .....f....
6 ..........
7 ..........
8 ..........
9 ..........

Turn = 10.
  0123456789
0 r........r
1 ........r.
2 ..........
3 ..........
4 ..........
5 .....f....
6 ..........
7 ..........
8 ..........
9 ..........

*** Darwin 20x1 ***
Turn = 0.
  0
0 h
1 .
2 r
3 .
4 r
5 .
6 .
7 .
8 .
9 .
0 f
1 .
2 .
3 .
4 .
5 h
6 .
7 .
8 .
9 .

Turn = 2.
  0
0 .
1 .
2 h
3 .
4 r
5 .
6 r
7 .
8 .
9 .
0 f
1 .
2 .
3 h
4 .
5 .
6 .
7 .
8 .
9 .

Turn = 4.
  0
0 .
1 .
2 .
3 .
4 h
5 .
6 r
7 .
8 r
9 .
0 f
1 h
2 .
3 .
4 .
5 .
6 .
7 .
8 .
9 .

Turn = 6.
  0
0 .
1 .
2 .
3 .
4 .
5 .
6 h
7 .
8 r
9 r
0 r
1 h
2 .
3 .
4 .
5 .
6 .
7 .
8 .
9 .

Turn = 8.
  0
0 .
1 .
2 .
3 .
4 .
5 .
6 .
7 h
8 r
9 r
0 r
1 r
2 .
3 .
4 .
5 .
6 .
7 .
8 .
9 .

Turn = 10.
  0
0 .
1 .
2 .
3 .
4 .
5 .
6 .
7 h
8 r
9 r
0 r
1 r
2 .
3 .
4 .
5 .
6 .
7 .
8 .
9 .

Turn = 12.
  0
0 .
1 .
2 .
3 .
4 .
5 .
6 .
7 h
8 r
9 r
0 r
1 r
2 .
3 .
4 .
5 .
6 .
7 .
8 .
9 .

Turn = 14.
  0
0 .
1 .
2 .
3 .
4 .
5 .
6 .
7 h
8 r
9 r
0 r
1 r
2 .
3 .
4 .
5 .
6 .
7 .
8 .
9 .

Turn = 16.
  0
0 .
1 .
2 .
3 .
4 .
5 .
6 .
7 h
8 r
9 r
0 r
1 r
2 .
3 .
4 .
5 .
6 .
7 .
8 .
9 .

Turn = 18.
  0
0 .
1 .
2 .
3 .
4 .
5 .
6 .
7 h
8 r
9 r
0 r
1 r
2 .
3 .
4 .
5 .
6 .
7 .
8 .
9 .

Turn = 20.
  0
0 .
1 .
2 .
3 .
4 .
5 .
6 .
7 h
8 r
9 r
0 r
1 r
2 .
3 .
4 .
5 .
6 .
7 .
8 .
9 .

*** Darwin 1x20 ***
Turn = 0.
  01234567890123456789
0 h....r....r....tt...

Turn = 2.
  01234567890123456789
0 h...r.......r..tt...

Turn = 4.
  01234567890123456789
0 h.r...........rtt...

Turn = 6.
  01234567890123456789
0 rr............rrt...

Turn = 8.
  01234567890123456789
0 rr............rtt...

Turn = 10.
  01234567890123456789
0 r..r..........ttt...

Turn = 12.
  01234567890123456789
0 ..r..r........ttt...

Turn = 14.
  01234567890123456789
0 ....r..r......ttt...

Turn = 16.
  01234567890123456789
0 ......r..r....ttt...

Turn = 18.
  01234567890123456789
0 ........r..r..ttt...

Turn = 20.
  01234567890123456789
0 ..........r..tttt...

*** Darwin 20x20 ***
Turn = 0.
  01234567890123456789
0 ....................
1 ....................
2 .............h......
3 ...............r....
4 ....................
5 ....................
6 ....................
7 ....................
8 ....................
9 ....................
0 ....................
1 ....................
2 h...................
3 ....................
4 ..h.................
5 ....................
6 ....................
7 ....r...............
8 ....................
9 t...................

Turn = 2.
  01234567890123456789
0 ....................
1 ....................
2 ...............h....
3 .................r..
4 ....................
5 ....................
6 ....................
7 ....................
8 ....................
9 ....................
0 ....................
1 ....................
2 ....................
3 ....................
4 hh..................
5 ....................
6 ....................
7 ..r.................
8 ....................
9 t...................

Turn = 4.
  01234567890123456789
0 ....................
1 ....................
2 .................h..
3 ...................r
4 ....................
5 ....................
6 ....................
7 ....................
8 ....................
9 ....................
0 ....................
1 ....................
2 ....................
3 ....................
4 h...................
5 ....................
6 h...................
7 r...................
8 ....................
9 t...................

Turn = 6.
  01234567890123456789
0 ....................
1 ....................
2 ...................h
3 ....................
4 ...................r
5 ....................
6 ....................
7 ....................
8 ....................
9 ....................
0 ....................
1 ....................
2 ....................
3 ....................
4 h...................
5 ....................
6 h...................
7 ....................
8 r...................
9 t...................

Turn = 8.
  01234567890123456789
0 ....................
1 ....................
2 ...................h
3 ....................
4 ....................
5 ....................
6 ...................r
7 ....................
8 ....................
9 ....................
0 ....................
1 ....................
2 ....................
3 ....................
4 h...................
5 ....................
6 ....................
7 h...................
8 r...................
9 .r..................

Turn = 10.
  01234567890123456789
0 ....................
1 ....................
2 ...................h
3 ....................
4 ....................
5 ....................
6 ....................
7 ....................
8 ...................r
9 ....................
0 ....................
1 ....................
2 ....................
3 ....................
4 h...................
5 ....................
6 ....................
7 r...................
8 r...................
9 ...r................

Turn = 12.
  01234567890123456789
0 ....................
1 ....................
2 ...................h
3 ....................
4 ....................
5 ....................
6 ....................
7 ....................
8 ....................
9 ....................
0 ...................r
1 ....................
2 ....................
3 ....................
4 h...................
5 ....................
6 ....................
7 r...................
8 r...................
9 .....r..............

Turn = 14.
  01234567890123456789
0 ....................
1 ....................
2 ...................h
3 ....................
4 ....................
5 ....................
6 ....................
7 ....................
8 ....................
9 ....................
0 ....................
1 ....................
2 ...................r
3 ....................
4 h...................
5 ....................
6 ....................
7 r...................
8 r...................
9 .......r............

Turn = 16.
  01234567890123456789
0 ....................
1 ....................
2 ...................h
3 ....................
4 ....................
5 ....................
6 ....................
7 ....................
8 ....................
9 ....................
0 ....................
1 ....................
2 ....................
3 ....................
4 h..................r
5 r...................
6 ....................
7 ....................
8 ....................
9 r........r..........

Turn = 18.
  01234567890123456789
0 ....................
1 ....................
2 ...................h
3 ....................
4 ....................
5 ....................
6 ....................
7 ....................
8 ....................
9 ....................
0 ....................
1 ....................
2 ....................
3 ....................
4 r...................
5 r...................
6 ...................r
7 ....................
8 r...................
9 ...........r........

Turn = 20.
  01234567890123456789
0 ....................
1 ....................
2 ...................h
3 ....................
4 ....................
5 ....................
6 ....................
7 ....................
8 ....................
9 ....................
0 ....................
1 ....................
2 ....................
3 ....................
4 .r..................
5 ....................
6 r...................
7 r...................
8 ...................r
9 .............r......

*** Darwin 20x25 ***
Turn = 0.
  0123456789012345678901234
0 h........................
1 .........................
2 .........................
3 ...t.....................
4 .........................
5 .....h...................
6 ......t..................
7 ..........f..............
8 .........................
9 .........................
0 .......f..h..............
1 .........................
2 .........................
3 .........................
4 ..............h..........
5 .........................
6 .........................
7 .................h.......
8 .........................
9 ......................r..

Turn = 3.
  0123456789012345678901234
0 ...h.....................
1 .........................
2 .........................
3 ...t.....................
4 .........................
5 ..h......................
6 ......t..................
7 ..........f..............
8 .........................
9 .........................
0 .......f.....h...........
1 ..............h..........
2 .........................
3 .........................
4 .........................
5 .........................
6 .........................
7 .........................
8 .........................
9 .................h......r

Turn = 6.
  0123456789012345678901234
0 ......h..................
1 .........................
2 .........................
3 ...t.....................
4 .........................
5 h........................
6 ......t..................
7 ..........f..............
8 .........................
9 ..............h..........
0 .......f........h........
1 .........................
2 .........................
3 .........................
4 .........................
5 .........................
6 .........................
7 .........................
8 .........................
9 .................h......r

Turn = 9.
  0123456789012345678901234
0 .........h...............
1 .........................
2 .........................
3 ...t.....................
4 .........................
5 h........................
6 ......t.......h..........
7 ..........f..............
8 .........................
9 .........................
0 .......f...........h.....
1 .........................
2 .........................
3 .........................
4 .........................
5 .........................
6 .........................
7 .........................
8 .........................
9 .................h...r...

Turn = 12.
  0123456789012345678901234
0 ............h............
1 .........................
2 .........................
3 ...t..........h..........
4 .........................
5 h........................
6 ......t..................
7 ..........f..............
8 .........................
9 .........................
0 .......f..............h..
1 .........................
2 .........................
3 .........................
4 .........................
5 .........................
6 .........................
7 .........................
8 .........................
9 .................hr......

Turn = 15.
  0123456789012345678901234
0 ..............hh.........
1 .........................
2 .........................
3 ...t.....................
4 .........................
5 h........................
6 ......t..................
7 ..........f..............
8 .........................
9 .........................
0 .......f................h
1 .........................
2 .........................
3 .........................
4 .........................
5 .........................
6 .........................
7 .........................
8 ..................r......
9 ................r........

Turn = 18.
  0123456789012345678901234
0 ..............h...h......
1 .........................
2 .........................
3 ...t.....................
4 .........................
5 h........................
6 ......t..................
7 ..........f..............
8 .........................
9 .........................
0 .......f................h
1 .........................
2 .........................
3 .........................
4 .........................
5 ..................r......
6 .........................
7 .........................
8 .........................
9 .............r...........

Turn = 21.
  0123456789012345678901234
0 ..............h......h...
1 .........................
2 .........................
3 ...t.....................
4 .........................
5 h........................
6 ......t..................
7 ..........f..............
8 .........................
9 .........................
0 .......f................h
1 .........................
2 ..................r......
3 .........................
4 .........................
5 .........................
6 .........................
7 .........................
8 .........................
9 ..........r..............

Turn = 24.
  0123456789012345678901234
0 ..............h.........h
1 .........................
2 .........................
3 ...t.....................
4 .........................
5 h........................
6 ......t..................
7 ..........f..............
8 .........................
9 ..................r......
0 .......f................h
1 .........................
2 .........................
3 .........................
4 .........................
5 .........................
6 .........................
7 .........................
8 .........................
9 .......r.................

Turn = 27.
  0123456789012345678901234
0 ..............h.........h
1 .........................
2 .........................
3 ...t.....................
4 .........................
5 h........................
6 ......t...........r......
7 ..........f..............
8 .........................
9 .........................
0 .......f................h
1 .........................
2 .........................
3 .........................
4 .........................
5 .........................
6 .........................
7 .........................
8 .........................
9 ....r....................

Turn = 30.
  0123456789012345678901234
0 ..............h.........h
1 .........................
2 .........................
3 ...t..............r......
4 .........................
5 h........................
6 ......t..................
7 ..........f..............
8 .........................
9 .........................
0 .......f................h
1 .........................
2 .........................
3 .........................
4 .........................
5 .........................
6 .........................
7 .........................
8 .........................
9 .r.......................

*** Darwin 20x25 ***
Turn = 0.
  0123456789012345678901234
0 h........................
1 ......t.................f
2 ......................r..
3 .........................
4 .........................
5 .....h...................
6 .........................
7 ..........f..............
8 .........................
9 .......h.................
0 ........................h
1 .........................
2 .........................
3 .........................
4 ....h....................
5 .........................
6 .........................
7 .........................
8 .........................
9 ...t.....................

Turn = 3.
  0123456789012345678901234
0 ...h.....................
1 ......t.................f
2 ........................r
3 .........................
4 .........................
5 ..h......................
6 .........................
7 ..........f..............
8 .........................
9 .........................
0 ........................h
1 ....h....................
2 .......h.................
3 .........................
4 .........................
5 .........................
6 .........................
7 .........................
8 .........................
9 ...t.....................

Turn = 6.
  0123456789012345678901234
0 ......h..................
1 ......t.................f
2 .........................
3 .........................
4 .........................
5 h.......................r
6 .........................
7 ..........f..............
8 ....h....................
9 .........................
0 ........................h
1 .........................
2 .........................
3 .........................
4 .........................
5 .......h.................
6 .........................
7 .........................
8 .........................
9 ...t.....................

Turn = 9.
  0123456789012345678901234
0 .........h...............
1 ......t.................f
2 .........................
3 .........................
4 .........................
5 h...h....................
6 .........................
7 ..........f..............
8 ........................r
9 .........................
0 ........................h
1 .........................
2 .........................
3 .........................
4 .........................
5 .........................
6 .........................
7 .........................
8 .......h.................
9 ...t.....................

Turn = 12.
  0123456789012345678901234
0 ............h............
1 ......t.................f
2 ....h....................
3 .........................
4 .........................
5 h........................
6 .........................
7 ..........f..............
8 .........................
9 ........................r
0 ........................r
1 .........................
2 .........................
3 .........................
4 .........................
5 .........................
6 .........................
7 .........................
8 .........................
9 ...t...h.................

Turn = 15.
  0123456789012345678901234
0 ....h..........h.........
1 ......t.................f
2 .........................
3 .........................
4 .........................
5 h........................
6 .........................
7 ..........f..............
8 .........................
9 .....................r...
0 .........................
1 .........................
2 ........................r
3 .........................
4 .........................
5 .........................
6 .........................
7 .........................
8 .........................
9 ...t...h.................

Turn = 18.
  0123456789012345678901234
0 ....h.............h......
1 ......t.................f
2 .........................
3 .........................
4 .........................
5 h........................
6 .........................
7 ..........f..............
8 .........................
9 ..................r......
0 .........................
1 .........................
2 .........................
3 .........................
4 .........................
5 ........................r
6 .........................
7 .........................
8 .........................
9 ...t...h.................

Turn = 21.
  0123456789012345678901234
0 ....h................h...
1 ......t.................f
2 .........................
3 .........................
4 .........................
5 h........................
6 .........................
7 ..........f..............
8 .........................
9 ...............r.........
0 .........................
1 .........................
2 .........................
3 .........................
4 .........................
5 .........................
6 .........................
7 .........................
8 ........................r
9 ...t...h.................

Turn = 24.
  0123456789012345678901234
0 ....h...................h
1 ......t.................f
2 .........................
3 .........................
4 .........................
5 h........................
6 .........................
7 ..........f..............
8 .........................
9 ............r............
0 .........................
1 .........................
2 .........................
3 .........................
4 .........................
5 .........................
6 .........................
7 .........................
8 .........................
9 ...t...h...............r.

Turn = 27.
  0123456789012345678901234
0 ....h...................h
1 ......t.................f
2 .........................
3 .........................
4 .........................
5 h........................
6 .........................
7 ..........f..............
8 .........................
9 .........r...............
0 .........................
1 .........................
2 .........................
3 .........................
4 .........................
5 .........................
6 .........................
7 .........................
8 .........................
9 ...t...h............r....
