*** Darwin 15x19 ***
Turn = 0.
  0123456789012345678
0 .........h.........
1 ...................
2 .............h.....
3 ...................
4 ...................
5 h..................
6 ...................
7 ...................
8 ...................
9 ...................
0 ...................
1 ....h..............
2 .t....h............
3 ...................
4 ...................

Turn = 2.
  0123456789012345678
0 .......h.....h.....
1 ...................
2 ...................
3 ...................
4 ...................
5 h..................
6 ...................
7 ...................
8 ...................
9 ...................
0 ...................
1 ..h................
2 .t..h..............
3 ...................
4 ...................

Turn = 4.
  0123456789012345678
0 .....h.......h.....
1 ...................
2 ...................
3 ...................
4 ...................
5 h..................
6 ...................
7 ...................
8 ...................
9 ...................
0 ...................
1 h..................
2 .th................
3 ...................
4 ...................

Turn = 6.
  0123456789012345678
0 ...h.........h.....
1 ...................
2 ...................
3 ...................
4 ...................
5 h..................
6 ...................
7 ...................
8 ...................
9 ...................
0 ...................
1 h..................
2 .tt................
3 ...................
4 ...................

Turn = 8.
  0123456789012345678
0 .h...........h.....
1 ...................
2 ...................
3 ...................
4 ...................
5 h..................
6 ...................
7 ...................
8 ...................
9 ...................
0 ...................
1 h..................
2 .tt................
3 ...................
4 ...................

Turn = 10.
  0123456789012345678
0 h............h.....
1 ...................
2 ...................
3 ...................
4 ...................
5 h..................
6 ...................
7 ...................
8 ...................
9 ...................
0 ...................
1 h..................
2 .tt................
3 ...................
4 ...................

Turn = 12.
  0123456789012345678
0 h............h.....
1 ...................
2 ...................
3 ...................
4 ...................
5 h..................
6 ...................
7 ...................
8 ...................
9 ...................
0 ...................
1 h..................
2 .tt................
3 ...................
4 ...................

*** Darwin 2x9 ***
Turn = 0.
  012345678
0 ...r.t..h
1 ..r.....h

Turn = 5.
  012345678
0 ......rrr
1 ......r.r

Turn = 10.
  012345678
0 .......rr
1 ....rr.r.

*** Darwin 9x16 ***
Turn = 0.
  0123456789012345
0 ......t.....h...
1 f...............
2 ....t....f......
3 ................
4 ................
5 ................
6 ....r....h......
7 ....r.h.........
8 ................

Turn = 4.
  0123456789012345
0 ......t.........
1 f...............
2 ....t....f......
3 ......r.........
4 ............h...
5 ................
6 .......r........
7 r...............
8 .........h......

Turn = 8.
  0123456789012345
0 ......r.........
1 f.....r.........
2 ....t....f......
3 ................
4 r...............
5 ................
6 ...........r....
7 ................
8 .........h..h...

*** Darwin 11x5 ***
Turn = 0.
  01234
0 .....
1 t.f..
2 t..t.
3 h.r.h
4 ....r
5 r.h..
6 rh.rt
7 .....
8 r....
9 ...f.
0 ..f.h

Turn = 2.
  01234
0 .....
1 t.f..
2 t..t.
3 t....
4 ..rrh
5 .rr.t
6 .r.rt
7 r....
8 .....
9 ...f.
0 ..f.h

Turn = 4.
  01234
0 .....
1 t.f..
2 t..r.
3 tr.r.
4 .r..r
5 r..rr
6 ..rrr
7 .....
8 .....
9 ...f.
0 ..f.h

Turn = 6.
  01234
0 ...r.
1 trfr.
2 t....
3 t....
4 r..r.
5 .r.rr
6 ..r.r
7 .....
8 ..r..
9 ...f.
0 ..f.h

Turn = 8.
  01234
0 .rr..
1 t.rr.
2 t....
3 t...r
4 tr.r.
5 ..r..
6 r.r..
7 .....
8 .....
9 ..rf.
0 ..r.h

Turn = 10.
  01234
0 tr...
1 rrr.r
2 t..r.
3 t....
4 rr...
5 ...r.
6 r....
7 r....
8 .....
9 ..rr.
0 ...rr

*** Darwin 4x2 ***
Turn = 0.
  01
0 .f
1 tf
2 .f
3 ..

Turn = 2.
  01
0 .f
1 tf
2 .f
3 ..

Turn = 4.
  01
0 .t
1 tt
2 .f
3 ..

Turn = 6.
  01
0 .t
1 tt
2 .t
3 ..

Turn = 8.
  01
0 .t
1 tt
2 .t
3 ..

Turn = 10.
  01
0 .t
1 tt
2 .t
3 ..

*** Darwin 20x10 ***
Turn = 0.
  0123456789
0 .t........
1 ...f...r..
2 ..........
3 ..........
4 ..t.......
5 ..........
6 ..h.......
7 ..........
8 ..........
9 ..........
0 .........h
1 r......f..
2 ..........
3 ..........
4 r.........
5 ..........
6 ..........
7 ..........
8 ..........
9 ...h......

Turn = 4.
  0123456789
0 .t........
1 ...rr.....
2 ..........
3 ..........
4 ..t.......
5 ..........
6 h.........
7 ..........
8 ..........
9 ..........
0 ..........
1 r...r..f..
2 ..........
3 ..........
4 .........h
5 ...h......
6 ..........
7 ..........
8 ..........
9 ..........

Turn = 8.
  0123456789
0 .t.r.r....
1 ..........
2 ..........
3 ..........
4 ..t.......
5 ..........
6 h.........
7 r.........
8 ..........
9 ..........
0 .......r..
1 ...h..r...
2 ..........
3 ..........
4 ..........
5 ..........
6 ..........
7 ..........
8 .........h
9 ..........

Turn = 12.
  0123456789
0 .t....r..r
1 ..........
2 ..........
3 ..........
4 r.t.......
5 ..........
6 r......r..
7 ...h..r...
8 ..........
9 ..........
0 ..........
1 ..........
2 ..........
3 ..........
4 ..........
5 ..........
6 ..........
7 ..........
8 ..........
9 .........h

*** Darwin 9x16 ***
Turn = 0.
  0123456789012345
0 ............t..r
1 ...h........f...
2 ....h........h..
3 ......h.........
4 ................
5 ................
6 ................
7 ................
8 t.t.............

Turn = 5.
  0123456789012345
0 ...h........t...
1 ............t..r
2 .........h.....h
3 ................
4 ................
5 ................
6 ................
7 ................
8 t.t...h.........

*** Darwin 5x9 ***
Turn = 0.
  012345678
0 .........
1 .tf.h...r
2 .fr.t.ffh
3 h....f...
4 r.r......

Turn = 4.
  012345678
0 ......rr.
1 .tr......
2 rtr.t.ff.
3 ...r.f...
4 .r......h

Turn = 8.
  012345678
0 .r.rr....
1 .tt......
2 .tt.t.ff.
3 ....tt...
4 .....r..h

Turn = 12.
  012345678
0 ...r.....
1 .trrr....
2 .tt.r.ff.
3 .....r.r.
4 .....t..h

Turn = 16.
  012345678
0 .t.....r.
1 .tt...r.r
2 .tt....rr
3 .....r.r.
4 .....t..h

*** Darwin 16x7 ***
Turn = 0.
  0123456
0 ..ft...
1 .......
2 r......
3 .......
4 h......
5 .......
6 ....r..
7 ...h.f.
8 ....t..
9 .......
0 .......
1 .......
2 ...h...
3 ....r..
4 ....h..
5 ...h...

Turn = 5.
  0123456
0 hrtt...
1 .......
2 .......
3 .......
4 ......r
5 .......
6 .......
7 h....f.
8 ....t..
9 ....h..
0 .......
1 .......
2 h......
3 .......
4 .......
5 ...h..r

*** Darwin 4x12 ***
Turn = 0.
  012345678901
0 ......t..t..
1 ....t......t
2 .....h.....t
3 ........t...

Turn = 2.
  012345678901
0 ......t..t..
1 ....t......t
2 ...........t
3 .....h..t...

Turn = 4.
  012345678901
0 ......t..t..
1 ....t......t
2 ...........t
3 .....h..t...

Turn = 6.
  012345678901
0 ......t..t..
1 ....t......t
2 ...........t
3 .....h..t...

Turn = 8.
  012345678901
0 ......t..t..
1 ....t......t
2 ...........t
3 .....h..t...
