*** Darwin 6x30 ***
Turn = 0.
  012345678901234567890123456789
0 ...........f........r.....h...
1 ......................t.......
2 ...........h..................
3 ............h.............r.t.
4 .......r....r................f
5 ..............h...............

Turn = 5.
  012345678901234567890123456789
0 ...........f..............h...
1 ......................t.......
2 ............................r.
3 ........h.....................
4 ..r..............r.........r.r
5 ...........hh.......r.........

Turn = 10.
  012345678901234567890123456789
0 ...........f..............h..r
1 ......................t.......
2 r.............................
3 ...h..........................
4 ......................rr......
5 ...........hh...r.........r...

Turn = 15.
  012345678901234567890123456789
0 ...........f..............h..r
1 r.....................t.......
2 ..............................
3 h.............................
4 ..............................
5 ...........rrr......r..rr.....

Turn = 20.
  012345678901234567890123456789
0 ...........f.r............rr..
1 ......................t.......
2 ..r...........................
3 ..............................
4 r.............................
5 .........r.....rr..rr.........

Turn = 25.
  012345678901234567890123456789
0 ...........f....rr....t.......
1 ......................t.......
2 .......r......................
3 r.............................
4 ..............................
5 ....r...........rrr.......r...

*** Darwin 22x16 ***
Turn = 0.
  0123456789012345
0 ................
1 ................
2 ..........h.....
3 ................
4 ................
5 ................
6 .........r......
7 ................
8 ..........t.....
9 ................
0 ..........h.....
1 ................
2 ................
3 ............t...
4 ................
5 t...............
6 ................
7 ................
8 ...........r....
9 ................
0 ............r...
1 ................

Turn = 7.
  0123456789012345
0 .........r......
1 ................
2 ................
3 ................
4 ................
5 ................
6 ................
7 ..........t.....
8 ..........t.....
9 ................
0 ...............h
1 ................
2 ................
3 ............t...
4 ................
5 t...............
6 ................
7 ................
8 ....r...........
9 ................
0 ................
1 .......r........

Turn = 14.
  0123456789012345
0 ..r.............
1 ................
2 ................
3 ................
4 ................
5 ................
6 ................
7 ..........t.....
8 ..........t.....
9 ................
0 ...............h
1 ................
2 ................
3 ............t...
4 ................
5 t...............
6 r...............
7 ................
8 ................
9 ................
0 ................
1 r...............

*** Darwin 45x88 ***
Turn = 0.
  0123456789012345678901234567890123456789012345678901234567890123456789012345678901234567
0 ........................................................................................
1 ........................................................................................
2 ...............................................................................t........
3 ........................................................................................
4 ........................................................................................
5 ........................................................................................
6 ........................................................................................
7 ........................................................................................
8 ........................................................................................
9 ...........................................................h............................
0 ........................................................................................
1 ......................................................................................r.
2 ........................................................................................
3 ........................................................................................
4 ........................................................................................
5 .....................................................h..................................
6 ........................................................................................
7 ........................................................................................
8 ........................................................................................
9 ........................................................................................
0 ........................................................................................
1 ....................................................................................f...
2 ........................................................................................
3 ........................................................................................
4 ........................................................................................
5 ........................................................................................
6 ........................................................................................
7 ........................................................................................
8 ........................................................................................
9 ........................................................................................
0 ........................................................................................
1 ..................r..............................................................h......
2 ........................................................................................
3 ........................................................................................
4 ................................................................................h.......
5 ........................................................................................
6 ........................................................................................
7 ........................................................................................
8 ........................................................................................
9 ........................................................................................
0 ................................................................................f.......
1 ........................................................................................
2 ........................................................................................
3 ........................................................................................
4 .....................................t..................................................

Turn = 8.
  0123456789012345678901234567890123456789012345678901234567890123456789012345678901234567
0 ........................................................................................
1 ........................................................................................
2 ...............................................................................t........
3 ........................................................................................
4 ........................................................................................
5 ........................................................................................
6 ........................................................................................
7 ........................................................................................
8 ........................................................................................
9 ........................................................................................
0 ........................................................................................
1 ........................................................................................
2 ........................................................................................
3 ........................................................................................
4 ........................................................................................
5 .............................................h..........................................
6 ........................................................................................
7 ...........................................................h............................
8 ........................................................................................
9 ......................................................................................r.
0 ........................................................................................
1 ....................................................................................f...
2 ........................................................................................
3 ........................................................................................
4 ........................................................................................
5 ........................................................................................
6 ........................................................................................
7 ........................................................................................
8 ........................................................................................
9 ........................................................................................
0 ........................................................................................
1 .........................................................................h..............
2 ........................................................................................
3 ........................................................................................
4 ........................................................................................
5 ........................................................................................
6 ........................................................................................
7 ........................................................................................
8 ........................................................................................
9 ..................r.............................................................h.......
0 ................................................................................f.......
1 ........................................................................................
2 ........................................................................................
3 ........................................................................................
4 .....................................t..................................................

Turn = 16.
  0123456789012345678901234567890123456789012345678901234567890123456789012345678901234567
0 ........................................................................................
1 ........................................................................................
2 ...............................................................................t........
3 ........................................................................................
4 ........................................................................................
5 ........................................................................................
6 ........................................................................................
7 ........................................................................................
8 ........................................................................................
9 ........................................................................................
0 ........................................................................................
1 ........................................................................................
2 ........................................................................................
3 ........................................................................................
4 ........................................................................................
5 .....................................h..................................................
6 ........................................................................................
7 ........................................................................................
8 ........................................................................................
9 ........................................................................................
0 ........................................................................................
1 ....................................................................................f...
2 ........................................................................................
3 ........................................................................................
4 ........................................................................................
5 ...........................................................h............................
6 ........................................................................................
7 ......................................................................................r.
8 ........................................................................................
9 ........................................................................................
0 ........................................................................................
1 .................................................................h......................
2 ........................................................................................
3 ........................................................................................
4 ........................................................................................
5 ........................................................................................
6 ........................................................................................
7 ........................................................................................
8 ........................................................................................
9 ................................................................................h.......
0 ................................................................................f.......
1 ........................................................................................
2 ........................................................................................
3 ........................................................................................
4 ................r....................t..................................................

*** Darwin 37x93 ***
Turn = 0.
  012345678901234567890123456789012345678901234567890123456789012345678901234567890123456789012
0 .............................................................................................
1 ......................................t......................................................
2 .............................................................................................
3 .............................................................................................
4 .............................................................................................
5 .............................................................................................
6 .............................................................................................
7 .............................................................................................
8 .............................................................................................
9 .............................................................................................
0 .............................................................................................
1 .............................................................................................
2 .............................................................................................
3 .............................................................................................
4 ........................................................................h....................
5 .......................................................f.....................................
6 .............................................................................................
7 .............................................................................................
8 .............................................................................................
9 .............................................................................................
0 .............................................................................................
1 .............................................................................................
2 .............................................................................................
3 ...........................................................................f.................
4 .............................................................................................
5 .............................................................................................
6 .............................................................................................
7 .............................................................................................
8 .............................................................................................
9 .............................................................................................
0 .............................................................................................
1 .............................................................................................
2 .............................................................................................
3 .............................................................................................
4 ...........................t........................h........................................
5 .............................................................................................
6 ..........................................................................t..................

Turn = 15.
  012345678901234567890123456789012345678901234567890123456789012345678901234567890123456789012
0 .............................................................................................
1 ......................................t......................................................
2 .............................................................................................
3 .............................................................................................
4 .............................................................................................
5 .............................................................................................
6 .............................................................................................
7 .............................................................................................
8 .............................................................................................
9 .............................................................................................
0 .............................................................................................
1 .............................................................................................
2 .............................................................................................
3 .............................................................................................
4 .........................................................h...................................
5 .......................................................f.....................................
6 .............................................................................................
7 .............................................................................................
8 .............................................................................................
9 .............................................................................................
0 .............................................................................................
1 .............................................................................................
2 .............................................................................................
3 ...........................................................................f.................
4 .............................................................................................
5 .............................................................................................
6 .............................................................................................
7 .............................................................................................
8 .............................................................................................
9 .............................................................................................
0 .............................................................................................
1 .............................................................................................
2 .............................................................................................
3 .............................................................................................
4 ...........................t.......................................h.........................
5 .............................................................................................
6 ..........................................................................t..................

*** Darwin 52x47 ***
Turn = 0.
  01234567890123456789012345678901234567890123456
0 ...............................................
1 ...............................................
2 ...............................................
3 ...............................................
4 ............................h..................
5 ...............................................
6 ...h.....................................t.....
7 ...............................................
8 ...............................................
9 ...............................................
0 ...............................................
1 ...............................................
2 ...............................................
3 ...............................................
4 ...............................................
5 ................................t..............
6 ...............................................
7 ...............................................
8 ...............................................
9 ...............................................
0 .........f.....................................
1 ...............................................
2 ...............................................
3 ...............................................
4 .......r.......................................
5 ...............................................
6 ...............................................
7 ...............................................
8 ...............................................
9 ...............................................
0 ...............................................
1 ............................................r..
2 ...............................................
3 ...............................................
4 ...............................................
5 ...............................................
6 ..........................................r....
7 ...............................................
8 ...............................................
9 ...............................................
0 ..............................f................
1 ...............................................
2 ...............................................
3 .....................................t.........
4 ...............................................
5 ...............................................
6 ...............................................
7 ...............................................
8 ...r...........................................
9 ...............................................
0 ........................f......................
1 ..................t............................

Turn = 9.
  01234567890123456789012345678901234567890123456
0 ...............................................
1 ...............................................
2 ...............................................
3 ...............................................
4 ...............................................
5 ...............................................
6 ............h............................t.....
7 ...............................................
8 ...............................................
9 ...............................................
0 ...............................................
1 ...............................................
2 ...............................................
3 ............................h..................
4 ...............................................
5 .......r........................t..............
6 ...............................................
7 ...............................................
8 ...............................................
9 ...............................................
0 .........f.....................................
1 ...............................................
2 ...............................................
3 ...............................................
4 ...............................................
5 ...............................................
6 ...............................................
7 ...............................................
8 ...............................................
9 ...............................................
0 ...............................................
1 ...............................................
2 ...............................................
3 ...............................................
4 ...............................................
5 ...............................................
6 ...............................................
7 ...............................................
8 ...............................................
9 ...............................................
0 ..............................f.............r.r
1 ...............................................
2 ...............................................
3 .....................................t.........
4 ...............................................
5 ...............................................
6 ...............................................
7 ...............................................
8 ............r..................................
9 ...............................................
0 ........................f......................
1 ..................t............................

Turn = 18.
  01234567890123456789012345678901234567890123456
0 ...............................................
1 ...............................................
2 ...............................................
3 ...............................................
4 ...............................................
5 ...............................................
6 .......r.............h...................t.....
7 ...............................................
8 ...............................................
9 ...............................................
0 ...............................................
1 ...............................................
2 ...............................................
3 ...............................................
4 ...............................................
5 ................................t..............
6 ...............................................
7 ...............................................
8 ...............................................
9 ...............................................
0 .........f.....................................
1 ...............................................
2 ............................h..................
3 ...............................................
4 ...............................................
5 ...............................................
6 ...............................................
7 ...............................................
8 ...............................................
9 ...............................................
0 ...............................................
1 ...............................................
2 ...............................................
3 ...............................................
4 ...............................................
5 ...............................................
6 ...............................................
7 ...............................................
8 ...............................................
9 ...............................................
0 ..............................f................
1 ...............................................
2 ...............................................
3 .....................................t.........
4 ...............................................
5 ...............................................
6 ...............................................
7 ...............................................
8 .....................r.........................
9 ............................................r.r
0 ........................f......................
1 ..................t............................

*** Darwin 13x43 ***
Turn = 0.
  0123456789012345678901234567890123456789012
0 ..................t........................
1 ............................t..............
2 ...................h.................r..t..
3 ...........................................
4 ...r.......................................
5 ...........................................
6 ...........................................
7 ....fh.........................h...........
8 ...........................................
9 ...........................................
0 ..........f................................
1 ...............f...........................
2 ...........................f...............

Turn = 6.
  0123456789012345678901234567890123456789012
0 ....r.............t........................
1 ............................t..............
2 ........................................t..
3 ...........................................
4 ...........................................
5 ...........................................
6 ...........................................
7 ....fh..............................h......
8 ...................h.................r.....
9 ...........................................
0 ..........f................................
1 ...............f...........................
2 ...........................f...............

Turn = 12.
  0123456789012345678901234567890123456789012
0 ..........r.......t........................
1 ............................t..............
2 ........................................t..
3 ...........................................
4 ...........................................
5 ...........................................
6 ...........................................
7 ....fh....................................h
8 ...........................................
9 ...........................................
0 ..........f................................
1 ...............f...........................
2 ...................h.......f..........r....

Turn = 18.
  0123456789012345678901234567890123456789012
0 ................r.t........................
1 ............................t..............
2 ........................................t..
3 ...........................................
4 ...........................................
5 ...........................................
6 ...........................................
7 ....fh....................................h
8 ...........................................
9 ...........................................
0 ..........f................................
1 ...............f...........................
2 ...................h.......f..............r

*** Darwin 11x26 ***
Turn = 0.
  01234567890123456789012345
0 ..........................
1 ..........................
2 ..............f...h.......
3 ......h...................
4 .......h..................
5 ..........................
6 ......................t...
7 ..........................
8 ........................f.
9 ..........................
0 ..........................

Turn = 7.
  01234567890123456789012345
0 ..........................
1 ..........................
2 ..............fh..........
3 .............h............
4 ..............h...........
5 ..........................
6 ......................t...
7 ..........................
8 ........................f.
9 ..........................
0 ..........................

Turn = 14.
  01234567890123456789012345
0 ..........................
1 ..........................
2 ..............fh..........
3 ....................h.....
4 .....................h....
5 ..........................
6 ......................t...
7 ..........................
8 ........................f.
9 ..........................
0 ..........................

*** Darwin 65x42 ***
Turn = 0.
  012345678901234567890123456789012345678901
0 ..........................................
1 ..........................................
2 ..........................................
3 ..........................................
4 ..........................................
5 ..........................................
6 ..........................................
7 ..........................................
8 ..........................................
9 .....................................t....
0 ..........................................
1 ..........................................
2 ..........................................
3 ..........................................
4 ..........................................
5 ..........................................
6 ..........................................
7 ..........................................
8 ..........................................
9 ..........................................
0 ..........................................
1 ..........................................
2 ..........................................
3 ..........................................
4 ..........................................
5 ..........................................
6 ..........................................
7 h.........................................
8 ..........................................
9 ..........................................
0 ..........................................
1 ..........................................
2 ..........................................
3 ..........................................
4 ..........................................
5 ..........................................
6 ..........................................
7 ..........................................
8 ..........................................
9 ..........................................
0 ..........................................
1 ..........................................
2 ..........................................
3 ..........................................
4 ..........................................
5 ..............r...........................
6 ..........................................
7 ..........................................
8 ..........................................
9 ..........................................
0 ..........................................
1 ..........................................
2 ..................f.......................
3 ..........................................
4 ..........................................
5 ..........................................
6 ..........................................
7 ..........................................
8 ..........................................
9 ..........................................
0 ..........................................
1 ..............................t...........
2 ..........................................
3 ..........................................
4 ..........................................

Turn = 9.
  012345678901234567890123456789012345678901
0 ..........................................
1 ..........................................
2 ..........................................
3 ..........................................
4 ..........................................
5 ..........................................
6 ..........................................
7 ..........................................
8 ..........................................
9 .....................................t....
0 ..........................................
1 ..........................................
2 ..........................................
3 ..........................................
4 ..........................................
5 ..........................................
6 ..........................................
7 ..........................................
8 ..........................................
9 ..........................................
0 ..........................................
1 ..........................................
2 ..........................................
3 ..........................................
4 ..........................................
5 ..........................................
6 ..........................................
7 ..........................................
8 ..........................................
9 ..........................................
0 ..........................................
1 ..........................................
2 ..........................................
3 ..........................................
4 ..........................................
5 ..........................................
6 h.........................................
7 ..........................................
8 ..........................................
9 ..........................................
0 ..........................................
1 ..........................................
2 ..........................................
3 ..........................................
4 ..........................................
5 .....r....................................
6 ..........................................
7 ..........................................
8 ..........................................
9 ..........................................
0 ..........................................
1 ..........................................
2 ..................f.......................
3 ..........................................
4 ..........................................
5 ..........................................
6 ..........................................
7 ..........................................
8 ..........................................
9 ..........................................
0 ..........................................
1 ..............................t...........
2 ..........................................
3 ..........................................
4 ..........................................

Turn = 18.
  012345678901234567890123456789012345678901
0 ..........................................
1 ..........................................
2 ..........................................
3 ..........................................
4 ..........................................
5 ..........................................
6 ..........................................
7 ..........................................
8 ..........................................
9 .....................................t....
0 ..........................................
1 ..........................................
2 ..........................................
3 ..........................................
4 ..........................................
5 ..........................................
6 ..........................................
7 ..........................................
8 ..........................................
9 ..........................................
0 ..........................................
1 ..........................................
2 ..........................................
3 ..........................................
4 ..........................................
5 ..........................................
6 ..........................................
7 ..........................................
8 ..........................................
9 ..........................................
0 ..........................................
1 ..........................................
2 ..........................................
3 ..........................................
4 ..........................................
5 ..........................................
6 ..........................................
7 ..........................................
8 ..........................................
9 ..........................................
0 ..........................................
1 ..........................................
2 ..........................................
3 r.........................................
4 r.........................................
5 ..........................................
6 ..........................................
7 ..........................................
8 ..........................................
9 ..........................................
0 ..........................................
1 ..........................................
2 ..................f.......................
3 ..........................................
4 ..........................................
5 ..........................................
6 ..........................................
7 ..........................................
8 ..........................................
9 ..........................................
0 ..........................................
1 ..............................t...........
2 ..........................................
3 ..........................................
4 ..........................................

*** Darwin 22x43 ***
Turn = 0.
  0123456789012345678901234567890123456789012
0 .......................t...................
1 ...........................................
2 ...............................t...........
3 ...........................................
4 f..........................................
5 ...........................................
6 ...........................................
7 ...........................r...............
8 ...........................................
9 ...........................................
0 ...........................................
1 ...........................................
2 ..........................h................
3 ...........................................
4 ......r....................................
5 ...........................................
6 ...........................................
7 .......f...................................
8 ...........................................
9 ...........................................
0 ...........................................
1 ...........................................

Turn = 8.
  0123456789012345678901234567890123456789012
0 .......................t...................
1 ...........................................
2 ...............................t...........
3 ...........................................
4 f.........................h................
5 ...........................................
6 ...........................................
7 ...................r.......................
8 ...........................................
9 ...........................................
0 ...........................................
1 ...........................................
2 ...........................................
3 ...........................................
4 ...........................................
5 ...........................................
6 ...........................................
7 .......f...................................
8 ...........................................
9 ...........................................
0 ...........................................
1 ......r....................................

Turn = 16.
  0123456789012345678901234567890123456789012
0 .......................t..h................
1 ...........................................
2 ...............................t...........
3 ...........................................
4 f..........................................
5 ...........................................
6 ...........................................
7 ...........r...............................
8 ...........................................
9 ...........................................
0 ...........................................
1 ...........................................
2 ...........................................
3 ...........................................
4 ...........................................
5 ...........................................
6 ...........................................
7 .......f...................................
8 ...........................................
9 ...........................................
0 ...........................................
1 r..........................................

*** Darwin 35x45 ***
Turn = 0.
  012345678901234567890123456789012345678901234
0 .............................................
1 .............................................
2 .............................................
3 .............................................
4 .............................................
5 .............................................
6 .............................................
7 .............................................
8 .............................................
9 .............................................
0 .............................................
1 .............................................
2 .............................................
3 .............................................
4 .............................................
5 .............................................
6 ........h....................................
7 .............................................
8 .............................................
9 .............................................
0 .............................................
1 .........r...................................
2 .............................................
3 .............................................
4 .............................................
5 .............................................
6 .............................................
7 .............................................
8 .............................................
9 .....................h.......................
0 .............................................
1 .....................................t.......
2 .............................................
3 .............................................
4 ...........f.................................

Turn = 15.
  012345678901234567890123456789012345678901234
0 .............................................
1 .............................................
2 .............................................
3 .............................................
4 .............................................
5 .............................................
6 .............................................
7 .............................................
8 .............................................
9 .............................................
0 .............................................
1 .............................................
2 .............................................
3 .............................................
4 .............................................
5 .............................................
6 r............................................
7 .............................................
8 .............................................
9 .............................................
0 .............................................
1 .............................................
2 .............................................
3 .............................................
4 .............................................
5 .............................................
6 .............................................
7 .............................................
8 .............................................
9 ....................................h........
0 .............................................
1 ........h............................t.......
2 .............................................
3 .............................................
4 ...........f.................................
